<?xml version="1.0" encoding="UTF-8" standalone="no"?>
<svg width="13px" height="7px" viewBox="0 0 13 7" version="1.1" xmlns="http://www.w3.org/2000/svg" xmlns:xlink="http://www.w3.org/1999/xlink" xmlns:sketch="http://www.bohemiancoding.com/sketch/ns">
    <!-- Generator: Sketch 3.1.1 (8761) - http://www.bohemiancoding.com/sketch -->
    <title>Path 585</title>
    <desc>Created with Sketch.</desc>
    <defs></defs>
    <g id="Designs" stroke="none" stroke-width="1" fill="none" fill-rule="evenodd" sketch:type="MSPage">
        <g id="Text-page" sketch:type="MSArtboardGroup" transform="translate(-1331.000000, -33.000000)" stroke-linecap="square" stroke="#BCC9D7">
            <g id="Group-2" sketch:type="MSLayerGroup">
                <path d="M1332,33.7669044 L1337.48103,39.7669044 L1343,33.8964137" id="Path-585" sketch:type="MSShapeGroup"></path>
            </g>
        </g>
    </g>
</svg>