<?xml version="1.0" encoding="UTF-8" standalone="no"?>
<svg width="20px" height="16px" viewBox="0 0 20 16" version="1.1" xmlns="http://www.w3.org/2000/svg" xmlns:xlink="http://www.w3.org/1999/xlink" xmlns:sketch="http://www.bohemiancoding.com/sketch/ns">
    <!-- Generator: Sketch 3.1.1 (8761) - http://www.bohemiancoding.com/sketch -->
    <title>Rectangle 92</title>
    <desc>Created with Sketch.</desc>
    <defs></defs>
    <g id="Designs" stroke="none" stroke-width="1" fill="none" fill-rule="evenodd" sketch:type="MSPage">
        <g id="Mobile-Product" sketch:type="MSArtboardGroup" transform="translate(-14.000000, -14.000000)" fill="#BCC9D7">
            <path d="M14,14 L14,16 L34,16 L34,14 L14,14 Z M14,21 L14,23 L34,23 L34,21 L14,21 Z M14,28 L14,30 L34,30 L34,28 L14,28 Z" id="Rectangle-92" sketch:type="MSShapeGroup"></path>
        </g>
    </g>
</svg>